MEPS Household Component Annual Consolidated Data Files • meps.hc
…
# install.packages("devtools")
devtools::install_github("jjchern/meps.hc")

# To uninstall the package, use:
# remove.packages("meps.hc")

Usage

Load the datasets

# Load tibble via tidyverse for better printout
library(tidyverse)

meps.hc::f2014
#> # A tibble: 34,875 x 1,838
#>     duid   pid dupersid       panel famid31 famid42 famid53 famid14
#>    <dbl> <dbl>    <chr>      <fctr>  <fctr>  <fctr>  <fctr>  <fctr>
#>  1 40001   101 40001101 18 panel 18       A       A       A       A
#>  2 40001   102 40001102 18 panel 18       A       A       A       A
#>  3 40001   103 40001103 18 panel 18       A       A       A       A
#>  4 40001   104 40001104 18 panel 18       A       A       A       A
#>  5 40002   101 40002101 18 panel 18       A       A       A       A
#>  6 40004   101 40004101 18 panel 18       A       A       A       A
#>  7 40004   102 40004102 18 panel 18       A       A       A       A
#>  8 40004   103 40004103 18 panel 18       A       A       A       A
#>  9 40004   104 40004104 18 panel 18       A       A       A       A
#> 10 40004   105 40004105 18 panel 18       A       A       A       A
#> # ... with 34,865 more rows, and 1830 more variables: famidyr <fctr>,
#> #   cpsfamid <fctr>, fcsz1231 <dbl>, fcrp1231 <fctr>, ruletr31 <fctr>,
#> #   ruletr42 <fctr>, ruletr53 <fctr>, ruletr14 <fctr>, rusize31 <fctr>,
#> #   rusize42 <fctr>, rusize53 <fctr>, rusize14 <fctr>, ruclas31 <fctr>,
#> #   ruclas42 <fctr>, ruclas53 <fctr>, ruclas14 <fctr>, famsze31 <fctr>,
#> #   famsze42 <fctr>, famsze53 <fctr>, famsze14 <dbl>, fmrs1231 <fctr>,
#> #   fams1231 <dbl>, famszeyr <dbl>, famrfpyr <fctr>, region31 <fctr>,
#> #   region42 <fctr>, region53 <fctr>, region14 <fctr>, refprs31 <dbl>,
#> #   refprs42 <dbl>, refprs53 <dbl>, refprs14 <dbl>, resp31 <fctr>,
…
